<?xml version="1.0" encoding="UTF-8"?>
<svg width="183px" height="76px" viewBox="0 0 183 76" version="1.1" xmlns="http://www.w3.org/2000/svg" xmlns:xlink="http://www.w3.org/1999/xlink">
    <title>Group</title>
    <g id="Page-1" stroke="none" stroke-width="1" fill="none" fill-rule="evenodd">
        <g id="Group" transform="translate(0.790000, 0.340000)" fill="#FFFFFF">
            <polygon id="Path" points="37.35 20.36 37.82 20.79 38.33 21.26 38.82 21.72 39.31 22.21 39.77 22.69 40.21 23.23 40.67 23.77 41.05 24.29 41.41 24.75 42.54 24.75 44.24 24.75 45.84 24.75 47.33 24.75 48.69 24.75 50 24.75 51.16 24.75 52.21 24.75 53.21 24.75 54.14 24.75 54.96 24.75 55.71 24.75 56.38 24.75 56.97 24.75 57.48 24.75 57.81 24.75 57.81 25.7 57.48 25.7 56.97 25.7 56.38 25.7 55.71 25.7 54.96 25.7 54.14 25.7 53.21 25.7 52.21 25.7 51.16 25.7 50 25.7 48.69 25.7 47.33 25.7 45.84 25.7 44.24 25.7 42.54 25.7 42.09 25.7 42.26 25.98 42.62 26.55 42.96 27.14 43.29 27.75 43.63 28.37 43.91 29.01 44.22 29.63 44.47 30.27 44.7 30.94 44.94 31.55 44.96 31.63 45.78 31.63 48.43 31.63 50.72 31.63 52.73 31.63 54.4 31.63 55.76 31.63 56.91 31.63 57.81 31.63 57.81 32.55 56.91 32.55 55.76 32.55 54.4 32.55 52.73 32.55 50.72 32.55 48.43 32.55 45.78 32.55 45.26 32.55 45.37 32.91 45.55 33.58 45.71 34.27 45.96 35.66 46.17 37.1 46.25 37.79 46.27 38.15 47.07 38.15 49.49 38.15 51.65 38.15 53.47 38.15 55.01 38.15 56.3 38.15 57.35 38.15 57.81 38.15 57.81 39.1 57.35 39.1 56.3 39.1 55.01 39.1 53.47 39.1 51.65 39.1 49.49 39.1 47.07 39.1 46.34 39.1 46.35 39.26 46.35 39.97 46.3 41.18 46.25 42.41 46.12 43.6 46.09 43.8 46.97 43.8 49.33 43.8 51.41 43.8 53.14 43.8 54.63 43.8 55.89 43.8 56.91 43.8 57.71 43.8 57.74 43.8 57.71 44.29 57.69 44.72 56.91 44.72 55.89 44.72 54.63 44.72 53.14 44.72 51.41 44.72 49.33 44.72 46.97 44.72 45.95 44.72 45.94 44.8 45.71 45.98 45.58 46.57 45.45 47.14 45.12 48.35 44.76 49.47 44.57 49.99 46.02 49.99 48.41 49.99 50.46 49.99 52.24 49.99 53.75 49.99 55.01 49.99 55.99 49.99 56.86 49.99 56.93 49.99 56.91 50.04 56.74 50.79 56.7 50.91 55.99 50.91 55.01 50.91 53.75 50.91 52.24 50.91 50.46 50.91 48.41 50.91 46.02 50.91 44.19 50.91 43.86 51.71 43.63 52.25 43.34 52.79 43.09 53.35 42.83 53.84 42.24 54.87 41.9 55.41 41.75 55.64 42.06 55.64 44.94 55.64 47.48 55.64 49.61 55.64 51.41 55.64 52.96 55.64 54.21 55.64 55.06 55.64 55.04 55.69 54.73 56.33 54.6 56.56 54.21 56.56 52.96 56.56 51.41 56.56 49.61 56.56 47.48 56.56 44.94 56.56 42.06 56.56 41.1 56.56 40.9 56.82 40.57 57.28 40.21 57.74 39.79 58.21 39.43 58.64 39.05 59.08 38.64 59.49 38.2 59.87 37.79 60.26 37.35 60.67 36.92 61.03 36.45 61.36 36.22 61.54 37.56 61.54 39.1 61.54 40.59 61.54 41.93 61.54 43.19 61.54 44.35 61.54 45.45 61.54 46.38 61.54 47.3 61.54 48.1 61.54 48.82 61.54 49.49 61.54 50.1 61.54 50.62 61.54 51.08 61.54 51.37 61.54 51.03 61.95 50.59 62.47 50.1 62.47 49.49 62.47 48.82 62.47 48.1 62.47 47.3 62.47 46.38 62.47 45.45 62.47 44.35 62.47 43.19 62.47 41.93 62.47 40.59 62.47 39.1 62.47 37.56 62.47 35.86 62.47 34.88 62.47 34.55 62.65 34.06 62.96 33.52 63.21 33.03 63.49 32.49 63.72 31.98 63.96 31.44 64.16 30.87 64.34 30.31 64.52 29.74 64.68 29.18 64.8 28.59 64.96 28 65.04 27.38 65.14 26.79 65.22 26.17 65.27 25.53 65.32 24.91 65.32 24.27 65.32 23.65 65.27 23.65 66.55 25.37 66.55 27.43 66.55 29.38 66.55 31.18 66.55 32.85 66.55 34.45 66.55 35.89 66.55 37.22 66.55 38.48 66.55 39.56 66.55 40.64 66.55 41.57 66.55 42.42 66.55 43.16 66.55 43.86 66.55 44.47 66.55 45.01 66.55 45.48 66.55 45.68 66.55 45.14 66.86 44.58 67.19 44.06 67.47 43.86 67.47 43.16 67.47 42.42 67.47 41.57 67.47 40.64 67.47 39.56 67.47 38.48 67.47 37.22 67.47 35.89 67.47 34.45 67.47 32.85 67.47 31.18 67.47 29.38 67.47 27.43 67.47 25.37 67.47 23.65 67.47 23.65 69.63 23.34 69.55 22.7 69.4 22.08 69.19 21.49 68.99 20.87 68.78 20.28 68.55 19.69 68.3 19.1 68.04 18.97 67.98 18.97 53.82 18.97 39.59 12.62 39.59 12.62 35.07 18.97 35.07 18.97 26.44 23.65 26.44 23.65 35.2 29.87 35.2 29.87 39.64 23.65 39.64 23.65 54.3 24.17 54.3 24.63 54.25 25.14 54.17 25.73 54.05 26.27 53.84 26.81 53.63 27.35 53.4 27.89 53.17 28.12 53.04 28.38 52.89 28.9 52.58 29.36 52.27 29.82 51.91 30.28 51.58 30.72 51.19 31.11 50.79 31.54 50.35 31.9 49.94 32.11 49.73 32.26 49.5 32.62 49.01 32.96 48.52 33.26 48.04 33.42 47.78 33.57 47.5 33.86 46.98 34.14 46.44 34.37 45.88 34.55 45.32 34.65 45.03 34.76 44.72 34.94 44.13 35.09 43.54 35.22 42.93 35.32 42.31 35.43 41.67 35.48 41.05 35.53 40.39 35.53 39.74 35.53 39 35.45 38.23 35.35 37.51 35.22 36.77 35.09 36.07 34.88 35.33 34.65 34.69 34.42 33.97 34.14 33.32 33.83 32.68 33.47 32.07 33.11 31.42 32.73 30.86 32.31 30.29 32.06 29.99 31.88 29.73 31.65 29.47 31.41 29.24 31.13 28.96 30.9 28.73 30.64 28.47 30.41 28.27 30.16 28.04 29.87 27.8 29.31 27.42 28.74 27.01 28.15 26.65 27.56 26.32 26.92 26.03 26.3 25.75 25.66 25.52 24.99 25.36 24.35 25.18 23.96 25.13 23.65 25.06 22.93 24.95 22.24 24.93 21.88 24.93 21.54 24.93 20.26 24.93 19.51 24.9 18.97 24.93 18.97 20.49 19.38 20.49 19.82 20.49 20.7 20.46 21.67 20.46 22.13 20.46 22.65 20.49 23.14 20.51 23.6 20.56 24.06 20.61 24.58 20.72 25.04 20.79 25.5 20.87 25.94 21.03 26.4 21.1 26.87 21.28 27.3 21.41 27.71 21.59 28.18 21.74 29.02 22.13 29.85 22.54 30.28 22.77 30.67 23.03 31.47 23.54 31.83 23.8 32.21 24.06 32.6 24.36 32.96 24.67 33.65 25.26 33.98 25.6 34.32 25.93 34.65 26.26 34.96 26.62 35.3 26.96 35.58 27.32 35.89 27.68 36.15 28.09 36.45 28.45 36.71 28.83 37.22 29.63 37.46 30.06 37.69 30.47 38.1 31.32 38.51 32.19 38.84 33.09 39 33.56 39.18 34.02 39.31 34.43 39.43 34.94 39.64 35.87 39.79 36.82 39.92 37.77 40 38.77 40.03 39.74 40.03 40.18 40.03 40.62 39.98 41.52 39.87 42.36 39.74 43.21 39.56 44.03 39.46 44.47 39.38 44.85 39.13 45.68 38.87 46.47 38.59 47.24 38.43 47.65 38.28 48.01 37.92 48.76 37.51 49.5 37.12 50.19 36.68 50.89 36.2 51.55 35.96 51.89 35.71 52.22 35.45 52.5 35.19 52.81 34.94 53.12 34.65 53.4 34.4 53.71 34.09 53.97 33.8 54.28 33.5 54.53 33.19 54.79 32.91 55.07 32.26 55.54 31.65 56 30.98 56.43 30.64 56.61 30.31 56.82 29.62 57.18 28.9 57.56 28.18 57.85 27.43 58.13 26.69 58.36 26.3 58.44 25.94 58.54 25.14 58.69 24.96 58.74 24.58 58.82 24.06 58.87 23.83 58.87 23.65 58.87 23.65 61.31 24.11 61.24 24.58 61.21 24.99 61.11 25.48 61.03 25.94 60.9 26.35 60.8 26.81 60.67 27.25 60.54 27.71 60.41 28.15 60.23 28.59 60.08 29.02 59.87 29.85 59.49 30.28 59.28 30.67 59.05 31.08 58.82 31.47 58.59 32.26 58.05 32.62 57.79 33.03 57.51 33.75 56.92 34.14 56.61 34.5 56.3 35.17 55.64 35.81 54.97 36.45 54.25 36.79 53.87 37.07 53.48 37.63 52.71 38.18 51.91 38.43 51.53 38.71 51.09 38.95 50.68 39.18 50.27 39.62 49.4 40 48.5 40.36 47.6 40.69 46.68 41 45.75 41.23 44.83 41.46 43.85 41.52 43.36 41.59 42.88 41.67 42.41 41.72 41.9 41.8 40.93 41.82 39.92 41.82 39.33 41.8 38.72 41.75 38.13 41.7 37.56 41.62 37 41.52 36.43 41.44 35.87 41.29 35.3 41.16 34.74 41.03 34.17 40.87 33.63 40.69 33.09 40.49 32.55 40.31 32.01 40.08 31.53 39.85 30.99 39.62 30.5 39.33 29.99 39.2 29.73 39.07 29.5 38.82 29.01 38.51 28.55 38.18 28.09 37.87 27.62 37.56 27.14 37.22 26.73 36.84 26.29 36.12 25.47 35.71 25.06 35.32 24.67 34.94 24.26 34.5 23.9 34.06 23.54 33.65 23.18 32.85 22.41 32.47 22 32.11 21.62 31.75 21.18 31.36 20.74 31.03 20.31 30.75 19.89 30.41 19.43 30.1 18.97 29.85 18.48 29.54 18 29.28 17.51 29.05 16.99 28.82 16.51 28.59 15.97 28.38 15.48 28.18 14.94 28.02 14.38 27.87 13.86 27.71 13.32 27.59 12.76 27.46 12.19 27.35 11.63 27.25 11.06 27.2 10.47 27.1 9.32 27.1 8.73 27.07 8.11 27.1 7.36 27.12 6.62 27.23 5.9 27.33 5.13 27.43 4.41 27.59 3.72 27.76 2.97 27.94 2.28 28.05 1.92 28.15 1.56 28.38 0.95 28.79 0 33.83 0 33.6 0.36 33.39 0.77 33.19 1.2 33.01 1.61 32.8 2.08 32.62 2.54 32.47 3.05 32.34 3.54 32.21 4.08 32.06 4.62 31.98 5.16 31.88 5.72 31.85 5.95 33.65 5.95 36.12 5.95 38.43 5.95 40.59 5.95 42.6 5.95 44.47 5.95 46.19 5.95 47.79 5.95 49.31 5.95 50.62 5.95 51.85 5.95 52.96 5.95 53.98 5.95 54.86 5.95 55.71 5.95 56.43 5.95 57.07 5.95 57.63 5.95 57.81 5.95 57.81 6.9 57.63 6.9 57.07 6.9 56.43 6.9 55.71 6.9 54.86 6.9 53.98 6.9 52.96 6.9 51.85 6.9 50.62 6.9 49.31 6.9 47.79 6.9 46.19 6.9 44.47 6.9 42.6 6.9 40.59 6.9 38.43 6.9 36.12 6.9 33.65 6.9 31.75 6.9 31.7 7.52 31.7 8.11 31.75 9.01 31.77 9.47 31.8 9.91 31.93 10.78 32.01 11.19 32.11 11.63 32.31 12.4 33.65 12.4 36.22 12.4 38.61 12.4 40.87 12.4 42.93 12.4 44.86 12.4 46.63 12.4 48.3 12.4 49.79 12.4 51.18 12.4 52.44 12.4 53.6 12.4 54.68 12.4 55.6 12.4 56.45 12.4 57.2 12.4 57.81 12.4 57.81 13.3 57.2 13.3 56.45 13.3 55.6 13.3 54.68 13.3 53.6 13.3 52.44 13.3 51.18 13.3 49.79 13.3 48.3 13.3 46.63 13.3 44.86 13.3 42.93 13.3 40.87 13.3 38.61 13.3 36.22 13.3 33.65 13.3 32.59 13.3 32.6 13.32 32.73 13.73 32.91 14.12 33.06 14.53 33.24 14.91 33.62 15.68 34.06 16.43 34.5 17.17 34.99 17.87 35.53 18.54 35.81 18.82 36.09 19.15 36.36 19.43 36.81 19.43 39 19.43 41.11 19.43 43.03 19.43 44.86 19.43 46.5 19.43 48.07 19.43 49.49 19.43 50.8 19.43 52.01 19.43 53.11 19.43 54.11 19.43 55.01 19.43 55.84 19.43 56.55 19.43 57.2 19.43 57.79 19.43 57.81 19.43 57.81 20.36 57.79 20.36 57.2 20.36 56.55 20.36 55.84 20.36 55.01 20.36 54.11 20.36 53.11 20.36 52.01 20.36 50.8 20.36 49.49 20.36 48.07 20.36 46.5 20.36 44.86 20.36 43.03 20.36 41.11 20.36 39 20.36"></polygon>
            <polygon id="Path" fill-rule="nonzero" points="57.81 0 57.81 20.82 57.81 41.64 57.79 42.54 57.76 43.44 57.71 44.29 57.66 45.16 57.58 46.01 57.48 46.86 57.35 47.68 57.22 48.47 57.1 49.27 56.91 50.04 56.74 50.79 56.53 51.53 56.32 52.25 56.09 52.97 55.84 53.69 55.6 54.38 55.29 55.02 55.04 55.69 54.73 56.33 54.4 56.95 54.06 57.59 53.75 58.18 53.37 58.74 53.01 59.33 52.65 59.87 52.24 60.44 51.85 60.98 51.44 61.47 51.03 61.95 50.59 62.47 50.13 62.93 49.67 63.39 49.2 63.85 48.74 64.24 48.23 64.68 47.74 65.09 47.22 65.47 46.74 65.83 46.19 66.22 45.68 66.55 45.14 66.86 44.58 67.19 44.01 67.5 43.44 67.76 42.88 68.07 42.31 68.3 41.75 68.55 41.16 68.78 40.57 68.99 39.98 69.19 39.38 69.4 38.74 69.55 38.15 69.71 37.51 69.89 36.92 70.02 36.27 70.12 35.66 70.22 35.01 70.32 34.37 70.43 33.73 70.45 33.11 70.5 32.44 70.56 31.13 70.58 29.82 70.56 29.15 70.5 28.48 70.45 27.87 70.43 27.2 70.32 26.53 70.22 25.89 70.12 25.24 70.02 24.6 69.89 23.96 69.71 23.34 69.55 22.7 69.4 22.08 69.19 21.49 68.99 20.87 68.78 20.28 68.55 19.69 68.3 19.1 68.04 18.48 67.76 17.92 67.47 17.38 67.17 16.81 66.86 16.25 66.55 15.71 66.16 15.17 65.81 14.66 65.45 14.12 65.04 13.63 64.65 13.11 64.24 12.62 63.83 12.16 63.37 11.7 62.93 11.24 62.42 10.8 61.95 10.36 61.47 9.93 60.93 9.51 60.41 9.1 59.87 8.74 59.31 8.33 58.74 7.97 58.15 7.64 57.56 7.3 56.92 6.97 56.3 6.69 55.66 6.38 55 6.12 54.33 5.86 53.63 5.58 52.94 5.35 52.25 5.14 51.53 4.91 50.76 4.76 50.04 4.58 49.24 4.42 48.47 4.3 47.68 4.17 46.86 4.06 46.01 3.99 45.19 3.94 44.31 3.86 43.47 3.83 42.57 3.83 41.67 3.83 20.85 3.83 0 0 0 0 20.87 0 41.75 0 42.77 0.08 43.77 0.1 44.75 0.18 45.75 0.28 46.7 0.41 47.65 0.54 48.58 0.7 49.47 0.88 50.35 1.08 51.25 1.26 52.12 1.49 52.94 1.78 53.76 2.03 54.61 2.29 55.35 2.6 56.15 2.93 56.92 3.27 57.64 3.63 58.38 3.99 59.1 4.35 59.8 4.76 60.52 5.19 61.16 5.63 61.8 6.04 62.42 6.51 63.06 6.97 63.65 7.46 64.24 7.95 64.8 8.49 65.34 8.97 65.88 9.54 66.4 10.08 66.91 10.62 67.4 11.18 67.86 11.75 68.32 12.37 68.76 12.96 69.19 13.58 69.58 14.19 69.99 14.81 70.35 15.48 70.71 16.09 71.04 16.76 71.38 17.43 71.71 18.1 71.97 18.79 72.28 19.46 72.53 20.16 72.76 20.85 72.99 21.59 73.23 22.29 73.43 23.01 73.61 23.7 73.77 24.45 73.92 25.17 74.07 26.66 74.3 27.43 74.36 28.15 74.43 28.92 74.48 29.69 74.54 30.41 74.56 31.18 74.56 31.93 74.56 32.67 74.54 33.39 74.48 34.14 74.43 34.86 74.36 35.58 74.25 37.04 74.07 37.74 73.92 38.48 73.77 39.18 73.61 39.87 73.41 40.57 73.2 41.26 72.99 41.95 72.76 42.62 72.51 43.29 72.25 43.99 71.97 44.6 71.69 45.27 71.38 45.91 71.04 46.53 70.68 47.17 70.32 47.79 69.94 48.41 69.55 49 69.14 49.59 68.73 50.18 68.3 50.74 67.83 51.31 67.37 51.85 66.86 52.39 66.37 52.9 65.83 53.42 65.32 53.91 64.75 54.4 64.19 54.86 63.6 55.35 62.98 55.81 62.36 56.22 61.72 56.66 61.11 57.07 60.44 57.45 59.75 57.81 59.05 58.2 58.31 58.51 57.59 58.84 56.87 59.15 56.1 59.46 55.3 59.74 54.51 60.02 53.69 60.26 52.84 60.49 52.02 60.67 51.14 60.87 50.27 61.05 49.37 61.21 48.47 61.34 47.55 61.44 46.63 61.54 45.65 61.62 44.65 61.67 43.67 61.67 42.67 61.7 41.64 61.7 20.82 61.75 0"></polygon>
            <rect id="Rectangle" fill-rule="nonzero" x="71.42" y="32.7" width="109.18" height="1"></rect>
            <path d="M77.31,20.78 L77.31,27.07 C77.31,29.23 75.97,29.8 74.79,29.8 C73.61,29.8 72.36,29.2 72.36,27.04 L72.36,20.78 L71.07,20.78 L71.07,27.42 C71.0105666,28.4034476 71.3831969,29.3638762 72.0903569,30.0498982 C72.7975169,30.7359202 73.7688082,31.0792418 74.75,30.99 C75.7789762,31.0825465 76.7970355,30.7209648 77.5371167,30.0001065 C78.2771979,29.2792482 78.6654408,28.271055 78.6,27.24 L78.6,20.78 L77.31,20.78 Z M85.53,25.78 C85.6186615,25.1026546 85.393392,24.4218729 84.9182035,23.9311045 C84.4430151,23.4403361 83.7698524,23.1932288 83.09,23.26 C82.2222359,23.280894 81.4257644,23.7451878 80.98,24.49 L80.98,24.49 L80.98,23.49 L79.87,23.49 L79.87,30.74 L81.04,30.74 L81.04,26.74 C81.04,24.74 82.22,24.33 82.88,24.33 C84.03,24.33 84.38,24.97 84.38,26.23 L84.38,30.69 L85.55,30.69 L85.55,25.8 L85.53,25.78 Z M87.89,23.46 L86.71,23.46 L86.71,30.71 L87.89,30.71 L87.89,23.48 L87.89,23.46 Z M87.89,22.15 L87.89,20.78 L86.71,20.78 L86.71,22.17 L87.89,22.15 Z M91.64,29.36 L91.64,29.36 L89.82,23.46 L88.46,23.46 L91.01,30.7 L92.21,30.7 L94.87,23.46 L93.59,23.46 L91.59,29.36 L91.64,29.36 Z M99.72,28.43 L100.89,28.43 C100.751548,29.2321997 100.306961,29.9492761 99.65,30.43 C99.0986577,30.8142933 98.4292469,30.9913861 97.76,30.93 C95.76,30.93 94.64,29.4 94.64,27.3 C94.64,25.2 95.64,23.3 97.99,23.3 C99.99,23.3 100.99,24.96 100.99,27.52 L95.89,27.52 C95.89,29.03 96.57,29.9 97.89,29.9 C98.7572563,29.9225132 99.5158132,29.3198819 99.69,28.47 L99.72,28.43 Z M95.89,26.51 L99.77,26.51 C99.71,25.39 99.25,24.35 97.83,24.35 C96.7096104,24.4350531 95.854673,25.3869422 95.89,26.51 L95.89,26.51 Z M103.14,26.51 C103.104072,26.0113187 103.27602,25.5199881 103.615064,25.152533 C103.954107,24.7850779 104.430044,24.574232 104.93,24.57 L105.37,24.57 L105.37,23.32 C105.26752,23.3012222 105.16248,23.3012222 105.06,23.32 C104.174539,23.3572028 103.39254,23.9085118 103.06,24.73 L103.06,24.73 L103.06,23.48 L101.95,23.48 L101.95,30.73 L103.12,30.73 L103.12,26.52 L103.14,26.51 Z M110.86,25.51 L109.73,25.51 C109.73,25.05 109.55,24.29 108.07,24.29 C107.71,24.29 106.69,24.41 106.69,25.29 C106.69,25.89 107.05,26.03 107.95,26.29 L109.13,26.6 C110.58,26.97 111.13,27.52 111.13,28.51 C111.115413,29.2056577 110.806905,29.8625997 110.2809,30.3180896 C109.754895,30.7735796 109.060598,30.9850079 108.37,30.9 C105.61,30.9 105.37,29.24 105.37,28.37 L106.5,28.37 C106.5,28.94 106.7,29.85 108.35,29.85 C109.19,29.85 109.95,29.5 109.95,28.7 C109.95,28.12 109.57,27.93 108.57,27.7 L107.21,27.35 C106.21,27.1 105.59,26.59 105.59,25.59 C105.596922,24.9239888 105.886136,24.2921973 106.38573,23.8517153 C106.885324,23.4112333 107.548368,23.2034395 108.21,23.28 C110.71,23.28 110.88,25.19 110.88,25.55 L110.86,25.51 Z M113.07,23.44 L111.9,23.44 L111.9,30.69 L113.07,30.69 L113.07,23.48 L113.07,23.44 Z M113.07,22.13 L113.07,20.78 L111.9,20.78 L111.9,22.17 L113.07,22.13 Z M120.17,20.74 L119,20.74 L119,24.37 L119,24.47 C118.588381,23.7060286 117.787771,23.2325909 116.92,23.24 C115.07,23.24 114.02,24.81 114.02,26.85 C114.02,28.58 114.71,30.85 117.08,30.85 C117.928625,30.8937745 118.719272,30.4193861 119.08,29.65 L119.08,29.65 L119.08,30.65 L120.21,30.65 L120.21,20.65 L120.17,20.74 Z M115.17,27.04 C115.17,26.12 115.26,24.33 117.08,24.33 C118.9,24.33 118.96,26.23 118.96,27.4 C118.96,29.33 117.8,29.84 117.05,29.84 C115.77,29.84 115.17,28.64 115.17,27.04 Z M122.26,25.66 C122.259173,25.2524114 122.434763,24.8644059 122.741506,24.5960064 C123.048248,24.3276069 123.456128,24.2050758 123.86,24.26 C124.97,24.26 125.5,24.67 125.5,25.43 C125.5,26.19 125.17,26.26 124.89,26.29 L122.96,26.54 C122.373597,26.5472663 121.81561,26.793757 121.415331,27.2223575 C121.015052,27.650958 120.807223,28.2244684 120.84,28.81 C120.811517,29.3886029 121.035312,29.9511306 121.453483,30.3520372 C121.871653,30.7529438 122.443111,30.952838 123.02,30.9 C123.996553,30.9246101 124.9286,30.4918739 125.54,29.73 C125.54,30.28 125.74,30.83 126.78,30.83 C126.999578,30.8188285 127.215812,30.7715274 127.42,30.69 L127.42,29.81 C127.293655,29.822766 127.166345,29.822766 127.04,29.81 C126.8,29.81 126.65,29.69 126.65,29.38 L126.65,25.3 C126.65,23.44 124.65,23.3 124.06,23.3 C122.34,23.3 121.24,23.97 121.18,25.71 L122.26,25.66 Z M125.48,28.19 C125.48,29.19 124.41,29.89 123.32,29.89 C122.977816,29.9383051 122.632494,29.8259428 122.384257,29.5855237 C122.136019,29.3451045 122.012667,29.0035542 122.05,28.66 C122.05,27.75 122.97,27.57 123.54,27.48 C125,27.29 125.29,27.18 125.48,27.03 L125.48,28.22 L125.48,28.19 Z M133.85,20.75 L132.67,20.75 L132.67,24.38 L132.67,24.48 C132.256718,23.7176288 131.457171,23.2448193 130.59,23.25 C128.73,23.25 127.68,24.82 127.68,26.86 C127.68,28.59 128.37,30.86 130.75,30.86 C131.600017,30.9093973 132.393578,30.433261 132.75,29.66 L132.75,29.66 L132.75,30.66 L133.86,30.66 L133.86,20.66 L133.85,20.75 Z M128.85,27.05 C128.85,26.13 128.95,24.34 130.76,24.34 C132.57,24.34 132.64,26.24 132.64,27.41 C132.64,29.34 131.48,29.85 130.73,29.85 C129.47,29.88 128.87,28.66 128.87,27.08 L128.85,27.05 Z" id="Shape" fill-rule="nonzero"></path>
            <path d="M145.72,23.77 C145.499527,21.8005927 143.755394,20.3619042 141.78,20.52 C139,20.52 137.32,22.64 137.32,25.7 C137.32,29.52 139.45,30.99 141.62,30.99 C142.34,30.99 145.28,30.82 145.81,27.07 L144.56,27.07 C144.12,29.38 142.66,29.8 141.82,29.8 C139.45,29.8 138.65,28 138.65,25.66 C138.65,23.04 140.05,21.66 141.78,21.66 C143.071113,21.5520694 144.232222,22.4445637 144.46,23.72 L145.72,23.77 Z M147.61,25.66 C147.609173,25.2524114 147.784763,24.8644059 148.091506,24.5960064 C148.398248,24.3276069 148.806128,24.2050758 149.21,24.26 C150.31,24.26 150.85,24.67 150.85,25.43 C150.85,26.19 150.51,26.26 150.23,26.29 L148.3,26.54 C147.713305,26.5549348 147.158216,26.8090566 146.763528,27.2434016 C146.368841,27.6777467 146.168864,28.2545586 146.21,28.84 C146.181147,29.4205138 146.40626,29.9848635 146.82674,30.3861434 C147.24722,30.7874232 147.821467,30.9859335 148.4,30.93 C149.376231,30.9530618 150.307625,30.5206287 150.92,29.76 C150.92,30.31 151.12,30.86 152.16,30.86 C152.379578,30.8488285 152.595812,30.8015274 152.8,30.72 L152.8,29.84 C152.67031,29.8527053 152.53969,29.8527053 152.41,29.84 C152.17,29.84 152.02,29.72 152.02,29.41 L152.02,25.3 C152.02,23.44 150.02,23.3 149.44,23.3 C147.72,23.3 146.61,23.97 146.56,25.71 L147.61,25.66 Z M150.82,28.19 C150.82,29.19 149.75,29.89 148.66,29.89 C148.317816,29.9383051 147.972494,29.8259428 147.724257,29.5855237 C147.476019,29.3451045 147.352667,29.0035542 147.39,28.66 C147.39,27.75 148.31,27.57 148.89,27.48 C150.34,27.29 150.63,27.18 150.82,27.03 L150.82,28.22 L150.82,28.19 Z M155.96,24.46 L154.84,24.46 L154.84,29.17 C154.84,29.74 155.31,29.74 155.55,29.74 L155.96,29.74 L155.96,30.74 C155.54,30.74 155.2,30.84 155.08,30.84 C153.92,30.84 153.67,30.16 153.67,29.29 L153.67,24.49 L152.67,24.49 L152.67,23.49 L153.67,23.49 L153.67,21.49 L154.84,21.49 L154.84,23.49 L155.96,23.49 L155.96,24.49 L155.96,24.46 Z M161.52,20.53 L160.08,20.53 L158.89,22.53 L159.79,22.53 L161.52,20.53 Z M156.21,27.1 C156.21,28.97 157.21,30.92 159.45,30.92 C161.69,30.92 162.69,28.97 162.69,27.1 C162.69,25.23 161.69,23.28 159.45,23.28 C157.21,23.28 156.21,25.28 156.21,27.1 Z M157.42,27.1 C157.42,26.1 157.77,24.33 159.42,24.33 C161.07,24.33 161.42,26.13 161.42,27.1 C161.42,28.07 161.07,29.87 159.42,29.87 C157.77,29.87 157.42,28.07 157.42,27.1 Z M164.65,20.78 L163.47,20.78 L163.47,30.78 L164.65,30.78 L164.65,20.78 Z M167.16,23.48 L165.99,23.48 L165.99,30.73 L167.21,30.73 L167.21,23.48 L167.16,23.48 Z M167.16,22.17 L167.16,20.78 L165.99,20.78 L165.99,22.17 L167.16,22.17 Z M173.97,25.92 C173.992073,25.2185282 173.725191,24.5387552 173.231774,24.0396666 C172.738357,23.540578 172.061678,23.2659454 171.36,23.28 C169.05,23.28 168.01,25.06 168.01,27.28 C168.01,29.5 169.21,30.93 171.21,30.93 C172.7581,30.9466843 174.028052,29.7080343 174.05,28.16 L172.92,28.16 C172.72,29.27 172.04,29.88 171.25,29.88 C169.64,29.88 169.35,28.34 169.35,27.1 C169.35,25.86 169.81,24.37 171.27,24.37 C171.695875,24.3510444 172.111338,24.5049828 172.422043,24.7968573 C172.732748,25.0887318 172.912327,25.4937729 172.92,25.92 L173.97,25.92 Z M175.62,25.69 C175.619173,25.2824114 175.794763,24.8944059 176.101506,24.6260064 C176.408248,24.3576069 176.816128,24.2350758 177.22,24.29 C178.33,24.29 178.86,24.7 178.86,25.46 C178.86,26.22 178.53,26.29 178.25,26.32 L176.32,26.57 C175.735346,26.5799626 175.17997,26.8276288 174.781867,27.25592 C174.383763,27.6842112 174.177279,28.2561774 174.21,28.84 C174.181517,29.4186029 174.405312,29.9811306 174.823483,30.3820372 C175.241653,30.7829438 175.813111,30.982838 176.39,30.93 C177.366553,30.9546101 178.2986,30.5218739 178.91,29.76 C178.91,30.31 179.11,30.86 180.15,30.86 C180.369578,30.8488285 180.585812,30.8015274 180.79,30.72 L180.79,29.84 C180.663655,29.852766 180.536345,29.852766 180.41,29.84 C180.17,29.84 180.02,29.72 180.02,29.41 L180.02,25.3 C180.02,23.44 178.02,23.3 177.43,23.3 C175.71,23.3 174.61,23.97 174.55,25.71 L175.62,25.69 Z M178.84,28.22 C178.84,29.22 177.77,29.92 176.68,29.92 C176.336799,29.9600321 175.994333,29.8394131 175.75197,29.5931411 C175.509607,29.346869 175.394482,29.002517 175.44,28.66 C175.44,27.75 176.36,27.57 176.93,27.48 C178.39,27.29 178.68,27.18 178.87,27.03 L178.84,28.22 Z" id="Shape" fill-rule="nonzero"></path>
            <path d="M70.21,47.66 L75.32,47.66 C75.4007865,48.1869885 75.6753751,48.664844 76.09,49 C76.5839504,49.3049996 77.1607391,49.4483229 77.74,49.41 C78.2458479,49.4370478 78.7489017,49.3190903 79.19,49.07 C79.521143,48.8890722 79.7222425,48.5371481 79.71,48.16 C79.71,47.54 78.98,47.04 77.51,46.65 L76.83,46.47 C75.8556468,46.2219442 74.8944256,45.9249002 73.95,45.58 C73.3979694,45.402966 72.8730159,45.1505845 72.39,44.83 C71.7855402,44.3871596 71.2981382,43.8036502 70.97,43.13 C70.6484215,42.4241328 70.487878,41.6555735 70.5,40.88 C70.4288966,39.3295031 71.1103538,37.839979 72.33,36.88 C73.7833365,35.8413551 75.5461135,35.3266242 77.33,35.42 C79.1048202,35.314857 80.8640955,35.8039356 82.33,36.81 C83.5433994,37.7916499 84.2727198,39.2502905 84.33,40.81 L79.33,40.81 C79.2837215,40.3629164 79.0559759,39.9544204 78.7,39.68 C78.2570032,39.4061016 77.7397729,39.276794 77.22,39.31 C76.7834785,39.2765279 76.3471931,39.3777461 75.97,39.6 C75.690562,39.8028692 75.535562,40.1355522 75.56,40.48 C75.56,41.05 76.28,41.48 77.71,41.9 L78,41.98 L78.94,42.23 C80.2447981,42.4977438 81.5020976,42.9595401 82.67,43.6 C83.3349931,44.031945 83.8815402,44.6231783 84.26,45.32 C84.6042147,46.0299082 84.7755498,46.8111961 84.76,47.6 C84.8581803,49.2710161 84.1566764,50.8893002 82.87,51.96 C81.2921486,53.0762522 79.3786405,53.6164122 77.45,53.49 C75.6049174,53.5912398 73.7816797,53.0506286 72.29,51.96 C71.0164197,50.8879125 70.2599211,49.3239971 70.21,47.66 Z M93.69,47.36 C93.0913136,47.5901688 92.4803854,47.7871348 91.86,47.95 C90.66,48.28 90.06,48.73 90.06,49.29 C90.0469367,49.6100077 90.1792611,49.9187647 90.42,50.13 C90.7066552,50.3465197 91.0614972,50.4529723 91.42,50.43 C92.0579843,50.4831063 92.6900202,50.2736315 93.17,49.85 C93.5820632,49.3257863 93.778755,48.6641866 93.72,48 C93.72,47.82 93.72,47.68 93.72,47.6 C93.7309603,47.5203754 93.7309603,47.4396246 93.72,47.36 L93.69,47.36 Z M94.14,53 L93.84,51.79 C93.2602195,52.3317935 92.5810665,52.7562641 91.84,53.04 C91.0729661,53.3266161 90.2586835,53.4657227 89.44,53.45 C88.2971961,53.5360097 87.1652678,53.1778046 86.28,52.45 C85.4969438,51.6554263 85.0927098,50.5629018 85.17,49.45 C85.0631814,48.4087772 85.4476941,47.377248 86.21,46.66 C87.4620694,45.8847229 88.8893849,45.437612 90.36,45.36 L91.36,45.23 C92.88,45.06 93.64,44.65 93.64,43.99 C93.6587828,43.6688376 93.4967426,43.3640476 93.22,43.2 C92.8129395,43.0028456 92.3610578,42.9166086 91.91,42.95 C91.5028234,42.9222066 91.0980408,43.0313219 90.76,43.26 C90.465012,43.5079032 90.2962879,43.8746947 90.3,44.26 L85.61,44.26 C85.570208,42.9695991 86.2023012,41.7508327 87.28,41.04 C88.7406812,40.2194947 90.4082046,39.8408279 92.08,39.95 C93.0012788,39.9444128 93.9203025,40.0416817 94.82,40.24 C95.5303203,40.3700355 96.2091952,40.6347967 96.82,41.02 C97.3364757,41.3598097 97.7511809,41.8332648 98.02,42.39 C98.2805032,43.0859579 98.3961983,43.8277676 98.36,44.57 L98.36,51.57 C98.3577886,51.7847448 98.4057267,51.9970421 98.5,52.19 C98.5901263,52.3703851 98.724256,52.5251502 98.89,52.64 L98.89,53 L94.14,53 Z M99.81,53 L99.81,40.3 L104.18,40.3 L104.18,42.15 C104.679092,41.4723346 105.320863,40.9124923 106.06,40.51 C106.785831,40.1362616 107.593829,39.9505941 108.41,39.97 C109.096346,39.9499988 109.778817,40.0796684 110.41,40.35 C110.984781,40.6058651 111.489127,40.9969907 111.88,41.49 C112.258325,41.9820787 112.521451,42.5527548 112.65,43.16 C112.834355,44.2195507 112.911411,45.2949894 112.88,46.37 L112.88,52.95 L108.08,52.95 L108.08,46.4 C108.142746,45.7120017 108.014729,45.0200154 107.71,44.4 C107.412882,44.0126213 106.935425,43.8079967 106.45,43.86 C105.918869,43.8242011 105.406149,44.0617113 105.09,44.49 C104.757095,45.0725638 104.604002,45.7406043 104.65,46.41 L104.65,52.94 L99.81,53 Z" id="Shape" fill-rule="nonzero"></path>
            <path d="M133.96,38.96 C133.584328,38.1550466 133.000992,37.4647076 132.27,36.96 C131.611424,36.5201707 130.869357,36.2206208 130.09,36.08 C128.924872,35.8757496 127.742638,35.7853238 126.56,35.81 L119.83,35.81 L119.83,52.95 L125.08,52.95 L125.08,47.66 L128.21,47.66 C129.904888,47.7781844 131.579384,47.2331663 132.88,46.14 C134.020018,44.9656609 134.608727,43.3630618 134.5,41.73 C134.522456,40.7784786 134.33822,39.8334113 133.96,38.96 Z M128.96,43.13 C128.271731,43.4561304 127.508324,43.5908494 126.75,43.52 L125.07,43.52 L125.07,40.02 L126.75,40.02 C127.513996,39.943383 128.284496,40.074679 128.98,40.4 C129.36967,40.7427992 129.567513,41.2542029 129.51,41.77 C129.568781,42.2851152 129.366124,42.7955089 128.97,43.13 L128.96,43.13 Z" id="Shape" fill-rule="nonzero"></path>
            <path d="M147.37,52.14 C147.283604,51.9447571 147.239309,51.7335032 147.24,51.52 L147.24,44.52 C147.276198,43.7777676 147.160503,43.0359579 146.9,42.34 C146.631181,41.7832648 146.216476,41.3098097 145.7,40.97 C145.088317,40.58654 144.409786,40.3219129 143.7,40.19 C142.796999,39.9911885 141.874608,39.8939181 140.95,39.9 C139.302924,39.7844601 137.657405,40.1455024 136.21,40.94 C135.129307,41.6481321 134.496275,42.8687071 134.54,44.16 L139.21,44.16 C139.206288,43.7746947 139.375012,43.4079032 139.67,43.16 C140.008041,42.9313219 140.412823,42.8222066 140.82,42.85 C141.270921,42.8189409 141.722208,42.9050644 142.13,43.1 C142.406743,43.2640476 142.568783,43.5688376 142.55,43.89 C142.55,44.55 141.79,44.96 140.27,45.13 L139.27,45.26 C137.796264,45.3376571 136.365723,45.7847009 135.11,46.56 C134.335168,47.2632374 133.932193,48.2873126 134.02,49.33 C133.94271,50.4429018 134.346944,51.5354263 135.13,52.33 C136.015268,53.0578046 137.147196,53.4160097 138.29,53.33 C139.108683,53.3457227 139.922966,53.2066161 140.69,52.92 C141.4328,52.6397547 142.112598,52.2148811 142.69,51.67 L142.99,52.88 L147.81,52.88 L147.81,52.52 C147.634403,52.4313139 147.483302,52.3008176 147.37,52.14 Z M141.99,49.8 C141.506363,50.2241839 140.871069,50.433542 140.23,50.38 C139.871394,50.4038766 139.516243,50.2973312 139.23,50.08 C138.989261,49.8687647 138.856937,49.5600077 138.87,49.24 C138.87,48.68 139.47,48.24 140.67,47.9 C141.28949,47.7340841 141.900259,47.5371696 142.5,47.31 C142.51096,47.3896246 142.51096,47.4703754 142.5,47.55 L142.5,47.95 C142.565141,48.6085605 142.383392,49.2678459 141.99,49.8 L141.99,49.8 Z" id="Shape" fill-rule="nonzero"></path>
            <path d="M156.76,39.95 C156.112742,39.945082 155.472989,40.0887699 154.89,40.37 C154.273732,40.6811697 153.7315,41.1210938 153.3,41.66 L153.3,35.82 L148.62,35.82 L148.62,52.95 L152.87,52.95 L152.87,51.4 C153.332399,52.032297 153.934759,52.5490944 154.63,52.91 C155.310643,53.2451747 156.06142,53.4131567 156.82,53.4 C158.299306,53.4406967 159.704453,52.7530716 160.58,51.56 C162.505795,48.5844086 162.505795,44.7555914 160.58,41.78 C159.678867,40.5865052 158.254784,39.9042875 156.76,39.95 Z M156.68,48.95 C156.357622,49.4360026 155.813203,49.7281788 155.23,49.7281788 C154.646797,49.7281788 154.102378,49.4360026 153.78,48.95 C153.395815,48.3050236 153.214624,47.5593557 153.26,46.81 C153.204085,46.0424979 153.370747,45.2751578 153.74,44.6 C154.076337,44.1102742 154.647525,43.8361039 155.24,43.88 C155.823306,43.8408356 156.383356,44.1151457 156.71,44.6 C157.076864,45.2585044 157.250189,46.0072704 157.21,46.76 C157.247101,47.513048 157.062852,48.2604752 156.68,48.91 L156.68,48.95 Z" id="Shape" fill-rule="nonzero"></path>
            <path d="M180.06,41.66 C177.162184,39.2502488 172.957816,39.2502488 170.06,41.66 C167.628223,44.5233582 167.628223,48.7266418 170.06,51.59 C172.015814,53.6906214 175.07627,54.3443676 177.719655,53.2261843 C180.36304,52.1080011 182.025328,49.4564784 181.88,46.59 C181.972375,44.7670281 181.314749,42.9856567 180.06,41.66 L180.06,41.66 Z M176.59,49.13 C176.258962,49.6468995 175.672371,49.9421123 175.06,49.9 C174.448371,49.9520357 173.859866,49.6539118 173.54,49.13 C173.179333,48.3413731 173.021221,47.4751924 173.08,46.61 C173.020741,45.7512477 173.17895,44.8914153 173.54,44.11 C173.864076,43.591692 174.450908,43.298276 175.06,43.35 C175.672371,43.3078877 176.258962,43.6031005 176.59,44.12 C176.960497,44.8950181 177.122493,45.753253 177.06,46.61 C177.119113,47.4762387 176.957397,48.3433088 176.59,49.13 L176.59,49.13 Z" id="Shape" fill-rule="nonzero"></path>
            <rect id="Rectangle" fill-rule="nonzero" x="162.7" y="35.82" width="4.84" height="17.13"></rect>
        </g>
    </g>
</svg>